<svg width="33" height="51" viewBox="0 0 33 51" fill="none" xmlns="http://www.w3.org/2000/svg">
    <g clip-path="url(#clip0)">
        <path d="M23.542 0H9.79202C4.57988 0 0.338867 4.19475 0.338867 9.35003V41.6501C0.338867 46.8054 4.57988 51.0001 9.79202 51.0001H23.542C28.7532 51.0001 32.9951 46.8054 32.9951 41.6501V9.35003C32.9951 4.19475 28.7541 0 23.542 0ZM31.2764 41.65C31.2764 45.8685 27.8062 49.3 23.542 49.3H9.79202C5.52785 49.3 2.05765 45.8685 2.05765 41.65V9.35003C2.05765 5.13148 5.52785 1.70003 9.79202 1.70003H23.542C27.8062 1.70003 31.2764 5.13148 31.2764 9.35003V41.65Z" fill="#261746"/>
        <path d="M8.93241 4.25012C6.56315 4.25012 4.6355 6.15664 4.6355 8.50015C4.6355 10.8436 6.56305 12.7502 8.93241 12.7502C11.3009 12.7502 13.2293 10.8437 13.2293 8.50015C13.2292 6.15664 11.3017 4.25012 8.93241 4.25012ZM8.93241 11.0501C7.51102 11.0501 6.35428 9.90594 6.35428 8.50005C6.35428 7.09417 7.51102 5.95006 8.93241 5.95006C10.353 5.95006 11.5105 7.09417 11.5105 8.50005C11.5105 9.90594 10.3538 11.0501 8.93241 11.0501Z" fill="#261746"/>
        <path d="M20.1043 14.45H13.2292C8.96507 14.45 5.49487 17.8814 5.49487 22.0999V25.4999C5.49487 25.97 5.87988 26.3499 6.35422 26.3499H26.9792C27.4527 26.3499 27.8386 25.97 27.8386 25.4999V22.0999C27.8387 17.8814 24.3685 14.45 20.1043 14.45ZM26.1199 24.6499H7.21366V22.0999C7.21366 18.8198 9.91213 16.15 13.2292 16.15H20.1043C23.4215 16.15 26.1199 18.8198 26.1199 22.0999V24.6499Z" fill="#261746"/>
        <path d="M26.9795 34.8501H6.35446C5.88012 34.8501 5.49512 35.23 5.49512 35.7001V39.1C5.49512 43.3186 8.96531 46.75 13.2295 46.75H20.1045C24.3679 46.75 27.8389 43.3186 27.8389 39.1V35.7001C27.8388 35.23 27.4538 34.8501 26.9795 34.8501ZM26.12 39.1C26.12 42.3802 23.4215 45.05 20.1044 45.05H13.2294C9.91217 45.05 7.2138 42.3802 7.2138 39.1V36.55H26.12V39.1Z" fill="#261746"/>
        <path d="M26.9794 24.6499H6.35446C5.88012 24.6499 5.49512 25.0298 5.49512 25.4999V35.6999C5.49512 36.1699 5.88012 36.5498 6.35446 36.5498H26.9794C27.453 36.5498 27.8388 36.1699 27.8388 35.6999V25.4999C27.8388 25.0298 27.4538 24.6499 26.9794 24.6499ZM26.12 34.8499H7.2138V26.3499H26.12V34.8499Z" fill="#261746"/>
        <path d="M21.8232 28.05H11.5107C11.0364 28.05 10.6514 28.43 10.6514 28.9V32.3C10.6514 32.77 11.0364 33.1499 11.5107 33.1499H21.8232C22.2967 33.1499 22.6826 32.77 22.6826 32.3V28.9C22.6826 28.43 22.2975 28.05 21.8232 28.05ZM20.9638 31.45H12.3701V29.75H20.9638V31.45Z" fill="#293DF2"/>
        <path d="M18.3855 17.8501H14.948C14.0002 17.8501 13.2292 18.6125 13.2292 19.5501V21.2502C13.2292 22.1877 14.0001 22.9502 14.948 22.9502H18.3855C19.3334 22.9502 20.1043 22.1878 20.1043 21.2502V19.5501C20.1043 18.6125 19.3335 17.8501 18.3855 17.8501ZM14.948 21.2501V19.55H18.3855L18.3864 21.2501H14.948Z" fill="#293DF2"/>
        <path d="M18.3855 38.25H14.948C14.0002 38.25 13.2292 39.0124 13.2292 39.95V41.6501C13.2292 42.5876 14.0001 43.3501 14.948 43.3501H18.3855C19.3334 43.3501 20.1043 42.5877 20.1043 41.6501V39.95C20.1043 39.0124 19.3335 38.25 18.3855 38.25ZM14.948 41.65V39.9499H18.3855L18.3864 41.65H14.948Z" fill="#293DF2"/>
    </g>
    <defs>
        <clipPath id="clip0">
            <rect width="33" height="51" fill="white"/>
        </clipPath>
    </defs>
</svg>
