<svg width="52" height="51" viewBox="0 0 52 51" fill="none" xmlns="http://www.w3.org/2000/svg">
    <path d="M51.1333 49.3001H39.7072C39.9135 48.7323 39.8667 48.7051 39.8667 45.7437C40.9018 45.3847 41.5954 44.4268 41.6 43.3501V38.2501C41.599 37.1503 41.1613 36.0942 40.3797 35.3057C41.3567 34.7001 41.8089 33.5347 41.4895 32.4453C41.17 31.3559 40.1558 30.6041 39 30.6001H36.6522L35.5255 27.4729C34.8721 25.3004 32.8413 23.8067 30.5318 23.8H21.4682C19.1668 23.8008 17.1396 25.2852 16.4849 27.4491L15.3478 30.6001H13C11.8457 30.606 10.8336 31.3577 10.5148 32.4459C10.196 33.534 10.6469 34.6979 11.622 35.304C10.8394 36.0927 10.401 37.1495 10.4 38.2501V43.3501C10.4046 44.4268 11.0982 45.3847 12.1333 45.7437C12.1333 48.2308 12.0623 48.6643 12.2928 49.3001H0.866667C0.38802 49.3001 0 49.6806 0 50.1501C0 50.6195 0.38802 51.0001 0.866667 51.0001H51.1333C51.612 51.0001 52 50.6195 52 50.1501C52 49.6806 51.612 49.3001 51.1333 49.3001ZM39.8667 43.3501C39.8667 43.8195 39.4786 44.2001 39 44.2001H13C12.5214 44.2001 12.1333 43.8195 12.1333 43.3501V38.2501C12.1333 36.8417 13.2974 35.7001 14.7333 35.7001H37.2667C38.7026 35.7001 39.8667 36.8417 39.8667 38.2501V43.3501ZM18.2 45.9001H33.8C33.8 48.6549 33.7489 48.7195 33.9595 49.3001H18.0405C18.2503 48.7221 18.2 48.6541 18.2 45.9001ZM39 32.3001C39.3503 32.3029 39.6645 32.5123 39.7961 32.8307C39.9277 33.1491 39.8509 33.514 39.6015 33.7553C39.2773 34.0817 38.9437 34.0001 37.8794 34.0001L37.2667 32.3001H39ZM18.135 27.9651C18.5651 26.5089 19.9225 25.5051 21.4682 25.5H30.5318C32.0775 25.5051 33.4349 26.5089 33.865 27.9651C33.8893 28.0501 33.9161 28.113 36.0403 34.0001H15.9597L18.135 27.9651ZM13 32.3001H14.7333L14.1197 34.0001C12.9861 34.0001 12.7157 34.0757 12.3864 33.74C12.1464 33.4958 12.0773 33.1351 12.2107 32.8222C12.344 32.5093 12.6542 32.3041 13 32.3001ZM14.7333 49.3001C14.2547 49.3001 13.8667 48.9195 13.8667 48.4501V45.9001H16.4667V48.4501C16.4667 48.9195 16.0786 49.3001 15.6 49.3001H14.7333ZM36.4 49.3001C35.9214 49.3001 35.5333 48.9195 35.5333 48.4501V45.9001H38.1333V48.4501C38.1333 48.9195 37.7453 49.3001 37.2667 49.3001H36.4Z" fill="#261746"/>
    <path d="M51.2651 1.7102C43.16 0.4845 40.1371 0.0136 39.8519 0.0187C39.5668 0.0238 40.9439 -0.2057 30.9981 1.5674C30.5941 0.618505 29.6485 0.000456731 28.6 0H23.4C22.3515 0.000456731 21.4059 0.618505 21.0019 1.5674C11.0743 -0.20315 12.4332 0.02295 12.1498 0.01955C11.8664 0.01615 13.3319 -0.19295 0.734933 1.7102C0.312247 1.77395 0.000162725 2.13057 0 2.55V10.2C9.61827e-05 10.4479 0.110566 10.6835 0.302459 10.8449C0.494352 11.0063 0.748538 11.0775 0.9984 11.0398L12.1212 9.3619L20.1535 10.795C19.2077 11.7101 18.5647 12.8833 18.3083 14.1618C18.2216 14.6564 18.3621 15.1633 18.6922 15.5468C19.0223 15.9302 19.5083 16.151 20.02 16.15H25.1333V17.1564C23.9395 17.5704 23.2233 18.7677 23.4374 19.9918C23.6516 21.2158 24.7337 22.1106 26 22.1106C27.2663 22.1106 28.3484 21.2158 28.5626 19.9918C28.7767 18.7677 28.0605 17.5704 26.8667 17.1564V16.15H31.98C32.492 16.1513 32.9784 15.9305 33.3088 15.5468C33.6391 15.1631 33.7796 14.6559 33.6925 14.161C33.4357 12.8829 32.7928 11.71 31.8474 10.795L39.8788 9.36275L51.0016 11.0407C51.2516 11.0784 51.5059 11.0071 51.6979 10.8455C51.8898 10.6839 52.0002 10.4481 52 10.2V2.55C51.9998 2.13057 51.6878 1.77395 51.2651 1.7102ZM26 20.4C25.5214 20.4 25.1333 20.0194 25.1333 19.55C25.1333 19.0806 25.5214 18.7 26 18.7C26.4786 18.7 26.8667 19.0806 26.8667 19.55C26.8667 20.0194 26.4786 20.4 26 20.4ZM39 7.7911L31.2 9.18V3.2589L39 1.87V7.7911ZM23.4 1.7H28.6C29.0786 1.7 29.4667 2.08056 29.4667 2.55V9.2055C27.2551 8.26457 24.7449 8.26457 22.5333 9.2055V2.55C22.5333 2.08056 22.9214 1.7 23.4 1.7ZM1.73333 3.2793L11.2667 1.8411V7.7707L1.73333 9.2089V3.2793ZM13 1.87L20.8 3.2606V9.18L13 7.7911V1.87ZM31.993 14.4423L31.98 14.45L20.0122 14.4772C20.4906 11.9986 23.0083 10.2 26 10.2C28.9917 10.2 31.5094 11.9986 31.993 14.4423ZM50.2667 9.2089L40.7333 7.7707V1.8411L50.2667 3.2793V9.2089Z" fill="#261746"/>
    <path d="M20.1786 38.1549L15.8453 37.5471C15.3478 37.4774 14.844 37.6228 14.4644 37.9458C14.0847 38.2687 13.8667 38.7373 13.8667 39.2301V40.8001C13.8667 41.739 14.6427 42.5001 15.6 42.5001H19.9334C20.8907 42.5001 21.6667 41.739 21.6667 40.8001V39.837C21.6634 38.9925 21.0307 38.2773 20.1786 38.1549ZM15.6 40.8001V39.2301L19.9334 39.837V40.8001H15.6Z" fill="#261746"/>
    <path d="M36.1547 37.5471L31.8213 38.1549C30.9693 38.2773 30.3366 38.9925 30.3333 39.837V40.8001C30.3333 41.739 31.1093 42.5001 32.0666 42.5001H36.3999C37.3572 42.5001 38.1333 41.739 38.1333 40.8001V39.2301C38.1333 38.7373 37.9152 38.2687 37.5356 37.9458C37.156 37.6228 36.6521 37.4774 36.1547 37.5471ZM36.3999 40.8001H32.0666V39.837L36.3999 39.2301V40.8001Z" fill="#261746"/>
    <path d="M27.7332 37.3999H24.2666C23.7879 37.3999 23.3999 37.7805 23.3999 38.2499C23.3999 38.7193 23.7879 39.0999 24.2666 39.0999H27.7332C28.2119 39.0999 28.5999 38.7193 28.5999 38.2499C28.5999 37.7805 28.2119 37.3999 27.7332 37.3999Z" fill="#261746"/>
    <path d="M27.7332 40.8H24.2666C23.7879 40.8 23.3999 41.1806 23.3999 41.65C23.3999 42.1195 23.7879 42.5 24.2666 42.5H27.7332C28.2119 42.5 28.5999 42.1195 28.5999 41.65C28.5999 41.1806 28.2119 40.8 27.7332 40.8Z" fill="#261746"/>
    <path d="M19.9334 29.4671C20.3468 29.4671 20.358 29.3761 22.2214 27.8521C22.4678 27.6603 22.5889 27.3526 22.5378 27.0481C22.4867 26.7437 22.2714 26.4903 21.9753 26.3861C21.6792 26.2819 21.3488 26.3433 21.112 26.5465L19.3787 27.9626C19.0971 28.1914 18.9923 28.5689 19.1166 28.9061C19.241 29.2433 19.5677 29.4678 19.9334 29.4671Z" fill="#293DF2"/>
    <path d="M21.0012 31.994C21.3076 32.3544 21.8538 32.4031 22.2214 32.1028L27.4214 27.8528C27.6679 27.661 27.789 27.3533 27.7379 27.0489C27.6868 26.7444 27.4715 26.491 27.1754 26.3869C26.8793 26.2827 26.5489 26.344 26.3121 26.5472L21.1121 30.7972C20.7446 31.0977 20.695 31.6334 21.0012 31.994Z" fill="#293DF2"/>
    <path d="M11.2736 11.1425C8.07604 12.7738 6.06995 16.0149 6.06995 19.5499C6.06995 23.0849 8.07604 26.326 11.2736 27.9572C11.5495 28.0954 11.8796 28.0787 12.1396 27.9135C12.3995 27.7483 12.5498 27.4596 12.5339 27.1561C12.518 26.8527 12.3382 26.5807 12.0623 26.4425C9.44432 25.1024 7.80284 22.4462 7.80284 19.5499C7.80284 16.6536 9.44432 13.9973 12.0623 12.6572C12.4888 12.4436 12.658 11.9314 12.4402 11.5131C12.2224 11.0949 11.7001 10.9289 11.2736 11.1425Z" fill="#293DF2"/>
    <path d="M12.8051 14.1948C10.7714 15.2345 9.49597 17.2972 9.49597 19.5464C9.49597 21.7957 10.7714 23.8584 12.8051 24.898C13.0806 25.0365 13.4106 25.0203 13.6707 24.8555C13.9307 24.6906 14.0814 24.4023 14.0659 24.099C14.0503 23.7957 13.871 23.5235 13.5955 23.385C12.1406 22.6363 11.2292 21.1578 11.2292 19.5464C11.2292 17.935 12.1406 16.4566 13.5955 15.7078C13.871 15.5694 14.0503 15.2972 14.0659 14.9939C14.0814 14.6906 13.9307 14.4022 13.6707 14.2374C13.4106 14.0726 13.0806 14.0564 12.8051 14.1948Z" fill="#293DF2"/>
    <path d="M15.1277 18.7749C15.4034 18.6367 15.583 18.3648 15.5989 18.0615C15.6147 17.7582 15.4644 17.4697 15.2045 17.3046C14.9447 17.1395 14.6147 17.1229 14.339 17.2611C13.466 17.7033 12.9176 18.5864 12.9176 19.5501C12.9176 20.5138 13.466 21.3969 14.339 21.8392C14.7652 22.0527 15.2873 21.887 15.5051 21.469C15.7229 21.0509 15.5539 20.5389 15.1277 20.3253C14.8339 20.1741 14.6499 19.8755 14.6499 19.5501C14.6499 19.2247 14.8339 18.9261 15.1277 18.7749Z" fill="#293DF2"/>
    <path d="M39.9378 26.4425C39.5113 26.6561 39.3421 27.1684 39.5599 27.5866C39.7777 28.0049 40.2999 28.1708 40.7264 27.9572C43.924 26.326 45.9301 23.0849 45.9301 19.5499C45.9301 16.0149 43.924 12.7738 40.7264 11.1425C40.2999 10.9289 39.7777 11.0949 39.5599 11.5131C39.3421 11.9314 39.5113 12.4436 39.9378 12.6572C42.5557 13.9973 44.1972 16.6536 44.1972 19.5499C44.1972 22.4462 42.5557 25.1024 39.9378 26.4425Z" fill="#293DF2"/>
    <path d="M38.0276 14.5673C37.9228 14.7679 37.9035 15.0012 37.9741 15.2157C38.0446 15.4303 38.1992 15.6086 38.4037 15.7114C39.8586 16.4601 40.77 17.9385 40.77 19.55C40.77 21.1614 39.8586 22.6398 38.4037 23.3886C38.1282 23.5272 37.9489 23.7995 37.9336 24.1028C37.9182 24.4062 38.069 24.6946 38.3292 24.8593C38.5894 25.0241 38.9194 25.0402 39.195 24.9016C41.2287 23.8619 42.5041 21.7992 42.5041 19.55C42.5041 17.3007 41.2287 15.238 39.195 14.1984C38.9903 14.0953 38.7523 14.0763 38.5333 14.1455C38.3144 14.2146 38.1324 14.3664 38.0276 14.5673Z" fill="#293DF2"/>
    <path d="M36.8723 20.3253C36.5181 20.5052 36.3348 20.8989 36.4283 21.2793C36.5218 21.6596 36.8678 21.9282 37.2667 21.9301C38.368 21.6545 39.1252 20.6642 39.0867 19.5501C39.0909 18.5848 38.5405 17.6994 37.6636 17.2611C37.3879 17.1229 37.0579 17.1395 36.7981 17.3046C36.5382 17.4697 36.3879 17.7582 36.4037 18.0615C36.4196 18.3648 36.5992 18.6367 36.8749 18.7749C37.1685 18.9266 37.352 19.2255 37.3514 19.5509C37.3509 19.8763 37.1664 20.1745 36.8723 20.3253Z" fill="#293DF2"/>
</svg>
