<svg width="21" height="21" viewBox="0 0 21 21" fill="none" xmlns="http://www.w3.org/2000/svg">
    <path d="M10.5009 0C6.5614 0 3.36719 3.17275 3.36719 7.08666C3.36719 9.08893 5.3313 12.6761 5.3313 12.6761L10.238 21L15.3576 12.7733C15.3576 12.7733 17.6317 9.35069 17.6317 7.08666C17.6323 3.17275 14.4387 0 10.5009 0ZM10.4676 10.9898C8.21128 10.9898 6.38371 9.16227 6.38371 6.9036C6.38371 4.64792 8.21068 2.82154 10.4676 2.82154C12.7226 2.82154 14.552 4.64792 14.552 6.9036C14.552 9.16227 12.7226 10.9898 10.4676 10.9898Z" fill="url(#paint0_linear)"/>
    <defs>
        <linearGradient id="paint0_linear" x1="8.69025" y1="12.8248" x2="15.8569" y2="8.62977" gradientUnits="userSpaceOnUse">
            <stop stop-color="#293DF2"/>
            <stop offset="1" stop-color="#7800F1"/>
        </linearGradient>
    </defs>
</svg>
